Some data taming
…
* This can be particularly useful for plotting

---
# Words example

```r
data(sentences, package = "stringr")
sentences <- tibble(sent_num = seq_along(sentences), 
                    sentence = sentences)

sentences
```

```
## # A tibble: 720 x 2
##    sent_num sentence                                   
##       <int> <chr>                                      
##  1        1 The birch canoe slid on the smooth planks. 
##  2        2 Glue the sheet to the dark blue background.
##  3        3 It's easy to tell the depth of a well.     
##  4        4 These days a chicken leg is a rare dish.   
##  5        5 Rice is often served in round bowls.       
##  6        6 The juice of lemons makes fine punch.      
##  7        7 The box was thrown beside the parked truck.
##  8        8 The hogs were fed chopped corn and garbage.
##  9        9 Four hours of steady work faced us.        
## 10       10 Large size in stockings is hard to sell.   
## # ... with 710 more rows
```
…
---
# GSS
General Social Survey

```r
gss_cat
```

```
## # A tibble: 21,483 x 9
##     year marital         age race  rincome  partyid  relig  denom  tvhours
##    <int> <fct>         <int> <fct> <fct>    <fct>    <fct>  <fct>    <int>
##  1  2000 Never married    26 White $8000 t… Ind,nea… Prote… South…      12
##  2  2000 Divorced         48 White $8000 t… Not str… Prote… Bapti…      NA
##  3  2000 Widowed          67 White Not app… Indepen… Prote… No de…       2
##  4  2000 Never married    39 White Not app… Ind,nea… Ortho… Not a…       4
##  5  2000 Divorced         25 White Not app… Not str… None   Not a…       1
##  6  2000 Married          25 White $20000 … Strong … Prote… South…      NA
##  7  2000 Never married    36 White $25000 … Not str… Chris… Not a…       3
##  8  2000 Divorced         44 White $7000 t… Ind,nea… Prote… Luthe…      NA
##  9  2000 Married          44 White $25000 … Not str… Prote… Other        0
## 10  2000 Married          47 White $25000 … Strong … Prote… South…       3
## # ... with 21,473 more rows
```
…
