Introduction to data wrangling 1
…
---
* Select the student id, test site, pre- and post-test scores

```r
prepost <- reads %>% 
    select(student_id, test_site, pre_test_score, post_test_score)

prepost
```

```
## # A tibble: 48 x 4
##    student_id test_site pre_test_score post_test_score
##    <chr>      <chr>              <int>           <int>
##  1 Virden 1   VIRDEN                43              92
##  2 Virden 2   VIRDEN                46             104
##  3 Virden 3   VIRDEN                39              75
##  4 Virden 4   VIRDEN                35             115
##  5 Virden 5   VIRDEN                46              85
##  6 Virden 6   VIRDEN                35              91
##  7 Virden 7   VIRDEN                40              96
##  8 Virden 8   VIRDEN                39              74
##  9 Virden 9   VIRDEN                40              90
## 10 Virden 10  VIRDEN                45              86
## # ... with 38 more rows
```

---
# Add a variable

```r
library(magrittr)
prepost %<>% 
  mutate(gain = post_test_score - pre_test_score)
 
prepost
```

```
## # A tibble: 48 x 5
##    student_id test_site pre_test_score post_test_score  gain
##    <chr>      <chr>              <int>           <int> <int>
##  1 Virden 1   VIRDEN                43              92    49
##  2 Virden 2   VIRDEN                46             104    58
##  3 Virden 3   VIRDEN                39              75    36
##  4 Virden 4   VIRDEN                35             115    80
##  5 Virden 5   VIRDEN                46              85    39
##  6 Virden 6   VIRDEN                35              91    56
##  7 Virden 7   VIRDEN                40              96    56
##  8 Virden 8   VIRDEN                39              74    35
##  9 Virden 9   VIRDEN                40              90    50
## 10 Virden 10  VIRDEN                45              86    41
## # ... with 38 more rows
```
…
```r
prepost <- prepost %>%  
  mutate(gain = post_test_score - pre_test_score)
```

---
# Order by gain: Least to greatest

```r
prepost %>% 
  arrange(gain)
```

```
## # A tibble: 48 x 5
##    student_id  test_site pre_test_score post_test_score  gain
##    <chr>       <chr>              <int>           <int> <int>
##  1 Jones 12    JONES                 27              32     5
##  2 Westside 6  WESTSIDE              57              82    25
##  3 Virden 8    VIRDEN                39              74    35
##  4 Virden 3    VIRDEN                39              75    36
##  5 Virden 5    VIRDEN                46              85    39
##  6 Virden 10   VIRDEN                45              86    41
##  7 Jones 3     JONES                 54              95    41
##  8 Virden 1    VIRDEN                43              92    49
##  9 Jones 13    JONES                 49              98    49
## 10 Westside 13 WESTSIDE              45              94    49
## # ... with 38 more rows
```

---
# Order by gain: greatest to least

```r
prepost %>% 
  arrange(desc(gain))
```

```
## # A tibble: 48 x 5
##    student_id test_site pre_test_score post_test_score  gain
##    <chr>      <chr>              <int>           <int> <int>
##  1 Jones 11   JONES                 24             108    84
##  2 Virden 4   VIRDEN                35             115    80
##  3 Jones 4    JONES                 25              99    74
##  4 Jones 5    JONES                 36             110    74
##  5 Jones 9    JONES                 35             109    74
##  6 Virden 12  VIRDEN                31             102    71
##  7 Jones 1    JONES                 36             103    67
##  8 Virden 15  VIRDEN                35             101    66
##  9 Jones 6    JONES                 40             106    66
## 10 Westside 8 WESTSIDE              43             109    66
## # ... with 38 more rows
```
…
