Introduction to data wrangling 2
…
---
class: inverse
background-image:url(../img/dplyr_hex.png)
background-size:contain

---
# Oddity

```r
reads %>%
 count(student_id) 
```

```
## # A tibble: 46 x 2
##    student_id                 n
##    <chr>                  <int>
##  1 All Students (Average)     3
##  2 Jones 1                    1
##  3 Jones 10                   1
##  4 Jones 11                   1
##  5 Jones 12                   1
##  6 Jones 13                   1
##  7 Jones 14                   1
##  8 Jones 15                   1
##  9 Jones 2                    1
## 10 Jones 3                    1
## # ... with 36 more rows
```
---
# filter

Let's remove the summary rows at the end

```r
reads %<>% 
	filter(student_id != "All Students (Average)")

reads %>%
 count(student_id) 
```

```
## # A tibble: 45 x 2
##    student_id     n
##    <chr>      <int>
##  1 Jones 1        1
##  2 Jones 10       1
##  3 Jones 11       1
##  4 Jones 12       1
##  5 Jones 13       1
##  6 Jones 14       1
##  7 Jones 15       1
##  8 Jones 2        1
##  9 Jones 3        1
## 10 Jones 4        1
## # ... with 35 more rows
```
…
---
# `starts_with`

Let's use the Project Reads data

```r
reads %>% 
	select(starts_with("test"))
```

```
## # A tibble: 45 x 3
##    test_year              test_type test_site
##    <chr>                  <chr>     <chr>    
##  1 06/01/2016 12:00:00 AM YEAR END  VIRDEN   
##  2 06/01/2016 12:00:00 AM YEAR END  VIRDEN   
##  3 06/01/2016 12:00:00 AM YEAR END  VIRDEN   
##  4 06/01/2016 12:00:00 AM YEAR END  VIRDEN   
##  5 06/01/2016 12:00:00 AM YEAR END  VIRDEN   
##  6 06/01/2016 12:00:00 AM YEAR END  VIRDEN   
##  7 06/01/2016 12:00:00 AM YEAR END  VIRDEN   
##  8 06/01/2016 12:00:00 AM YEAR END  VIRDEN   
##  9 06/01/2016 12:00:00 AM YEAR END  VIRDEN   
## 10 06/01/2016 12:00:00 AM YEAR END  VIRDEN   
## # ... with 35 more rows
```

---
# `ends_with`

```r
reads %>% 
	select(ends_with("score"))
```

```
## # A tibble: 45 x 10
##    pre_test_score post_test_score unit_1_score unit_2_score unit_3_score
##             <int>           <int>        <int>        <int>        <int>
##  1             43              92            3            4            6
##  2             46             104            5            5            6
##  3             39              75            4            4            6
##  4             35             115            4            4            6
##  5             46              85            2            5            6
##  6             35              91            5            5            7
##  7             40              96            5            5            6
##  8             39              74            4            5            5
##  9             40              90            6            4            5
## 10             45              86            4            5            5
## # ... with 35 more rows, and 5 more variables: unit_4_score <int>,
## #   unit_5_6_score <int>, unit_7_score <int>, unit_8_score <int>,
## #   total_score <int>
```

---
# `contains`

```r
reads %>% 
	select(contains("test"))
```

```
## # A tibble: 45 x 7
##    test_year           test_type test_site pre_test_score pre_test_percent
##    <chr>               <chr>     <chr>              <int> <chr>           
##  1 06/01/2016 12:00:0… YEAR END  VIRDEN                43 29%             
##  2 06/01/2016 12:00:0… YEAR END  VIRDEN                46 31%             
##  3 06/01/2016 12:00:0… YEAR END  VIRDEN                39 26%             
##  4 06/01/2016 12:00:0… YEAR END  VIRDEN                35 23%             
##  5 06/01/2016 12:00:0… YEAR END  VIRDEN                46 31%             
##  6 06/01/2016 12:00:0… YEAR END  VIRDEN                35 23%             
##  7 06/01/2016 12:00:0… YEAR END  VIRDEN                40 27%             
##  8 06/01/2016 12:00:0… YEAR END  VIRDEN                39 26%             
##  9 06/01/2016 12:00:0… YEAR END  VIRDEN                40 27%             
## 10 06/01/2016 12:00:0… YEAR END  VIRDEN                45 30%             
## # ... with 35 more rows, and 2 more variables: post_test_score <int>,
## #   post_test_percent <chr>
```

---
# Mix types

You can mix types and helper funs. You can also use select to rearrange your columns.

```r
reads %>% 
	select(student_id, 1, starts_with("total"))
```

```
## # A tibble: 45 x 4
##    student_id test_year              total_score total_percent_correct
##    <chr>      <chr>                        <int> <chr>                
##  1 Virden 1   06/01/2016 12:00:00 AM         207 41%                  
##  2 Virden 2   06/01/2016 12:00:00 AM         224 45%                  
##  3 Virden 3   06/01/2016 12:00:00 AM         193 39%                  
##  4 Virden 4   06/01/2016 12:00:00 AM         223 45%                  
##  5 Virden 5   06/01/2016 12:00:00 AM         198 40%                  
##  6 Virden 6   06/01/2016 12:00:00 AM         210 42%                  
##  7 Virden 7   06/01/2016 12:00:00 AM         211 42%                  
##  8 Virden 8   06/01/2016 12:00:00 AM         180 36%                  
##  9 Virden 9   06/01/2016 12:00:00 AM         206 41%                  
## 10 Virden 10  06/01/2016 12:00:00 AM         206 41%                  
## # ... with 35 more rows
```
…
