Review
…
**Note:** These can be used in other functions as well (e.g., `gather`)

---
# Mix types

Mix types and helper funs. Use select to rearrange columns.

```r
library(tidyverse)
diamonds %>% 
    select(depth, 6, starts_with("c"), price)
```

```
## # A tibble: 53,940 x 7
##      depth table    carat cut       color clarity price
##      <dbl> <dbl>    <dbl> <ord>     <ord> <ord>   <int>
##  1 61.5       55 0.23     Ideal     E     SI2       326
##  2 59.8       61 0.21     Premium   E     SI1       326
##  3 56.9       65 0.23     Good      E     VS1       327
##  4 62.4       58 0.290000 Premium   I     VS2       334
##  5 63.3       58 0.31     Good      J     SI2       335
##  6 62.8       57 0.24     Very Good J     VVS2      336
##  7 62.3       57 0.24     Very Good I     VVS1      336
##  8 61.9       55 0.26     Very Good H     SI1       337
##  9 65.1000    61 0.22     Fair      E     VS2       337
## 10 59.4       61 0.23     Very Good H     VS1       338
## # ... with 53,930 more rows
```
…
---
# Calculate gain score

```r
reads %>% 
  mutate(gain = post_test_score - pre_test_score) %>% 
  select(student_id, 5, 7, gain)
```

```
## # A tibble: 48 x 4
##    student_id pre_test_score post_test_score  gain
##    <chr>               <int>           <int> <int>
##  1 Virden 1               43              92    49
##  2 Virden 2               46             104    58
##  3 Virden 3               39              75    36
##  4 Virden 4               35             115    80
##  5 Virden 5               46              85    39
##  6 Virden 6               35              91    56
##  7 Virden 7               40              96    56
##  8 Virden 8               39              74    35
##  9 Virden 9               40              90    50
## 10 Virden 10              45              86    41
## # ... with 38 more rows
```

---
# Overwrite a variable

```r
reads %>% 
  mutate(pre_test_score = scale(pre_test_score),
         post_test_score = scale(post_test_score)) %>% 
  select(student_id, 5, 7)
```

```
## # A tibble: 48 x 3
##    student_id pre_test_score post_test_score
##    <chr>               <dbl>           <dbl>
##  1 Virden 1        0.2241918      -0.4333331
##  2 Virden 2        0.6380844       0.4776153
##  3 Virden 3       -0.3276650      -1.723843 
##  4 Virden 4       -0.8795218       1.312651 
##  5 Virden 5        0.6380844      -0.9647197
##  6 Virden 6       -0.8795218      -0.5092455
##  7 Virden 7       -0.1897008      -0.1296836
##  8 Virden 8       -0.3276650      -1.799756 
##  9 Virden 9       -0.1897008      -0.5851578
## 10 Virden 10       0.5001202      -0.8888073
## # ... with 38 more rows
```
…
---
class: inverse center middle
# tidy data and *tidyr*

---
# Review Homework 4
* Tidy the reads dataset, minus columns 5-9

```r
reads %>% 
  select(-5:-9)
```

```
## # A tibble: 48 x 20
##    test_year    test_type test_site student_id unit_1_score unit_1_percent
##    <chr>        <chr>     <chr>     <chr>             <int> <chr>         
##  1 06/01/2016 … YEAR END  VIRDEN    Virden 1              3 12%           
##  2 06/01/2016 … YEAR END  VIRDEN    Virden 2              5 20%           
##  3 06/01/2016 … YEAR END  VIRDEN    Virden 3              4 16%           
##  4 06/01/2016 … YEAR END  VIRDEN    Virden 4              4 16%           
##  5 06/01/2016 … YEAR END  VIRDEN    Virden 5              2 8%            
##  6 06/01/2016 … YEAR END  VIRDEN    Virden 6              5 20%           
##  7 06/01/2016 … YEAR END  VIRDEN    Virden 7              5 20%           
##  8 06/01/2016 … YEAR END  VIRDEN    Virden 8              4 16%           
##  9 06/01/2016 … YEAR END  VIRDEN    Virden 9              6 24%           
## 10 06/01/2016 … YEAR END  VIRDEN    Virden 10             4 16%           
## # ... with 38 more rows, and 14 more variables: unit_2_score <int>,
## #   unit_2_percent <chr>, unit_3_score <int>, unit_3_percent <chr>,
## #   unit_4_score <int>, unit_4_percent <chr>, unit_5_6_score <int>,
## #   unit_5_6_percent <chr>, unit_7_score <int>, unit_7_percent <chr>,
## #   unit_8_score <int>, unit_8_percent <chr>, total_score <int>,
## #   total_percent_correct <chr>
```
…
---

```r
double_gather
```

```
## # A tibble: 2,205 x 7
##    student_id test_year            test_type test_site  unit score percent
##    <chr>      <chr>                <chr>     <chr>     <dbl> <int> <chr>  
##  1 Virden 1   06/01/2016 12:00:00… YEAR END  VIRDEN        1     3 12%    
##  2 Virden 2   06/01/2016 12:00:00… YEAR END  VIRDEN        1     5 20%    
##  3 Virden 3   06/01/2016 12:00:00… YEAR END  VIRDEN        1     4 16%    
##  4 Virden 4   06/01/2016 12:00:00… YEAR END  VIRDEN        1     4 16%    
##  5 Virden 5   06/01/2016 12:00:00… YEAR END  VIRDEN        1     2 8%     
##  6 Virden 6   06/01/2016 12:00:00… YEAR END  VIRDEN        1     5 20%    
##  7 Virden 7   06/01/2016 12:00:00… YEAR END  VIRDEN        1     5 20%    
##  8 Virden 8   06/01/2016 12:00:00… YEAR END  VIRDEN        1     4 16%    
##  9 Virden 9   06/01/2016 12:00:00… YEAR END  VIRDEN        1     6 24%    
## 10 Virden 10  06/01/2016 12:00:00… YEAR END  VIRDEN        1     4 16%    
## # ... with 2,195 more rows
```

---
# What's going on?

```r
double_gather %>% 
  count(student_id) 
```

```
## # A tibble: 45 x 2
##    student_id     n
##    <chr>      <int>
##  1 Jones 1       49
##  2 Jones 10      49
##  3 Jones 11      49
##  4 Jones 12      49
##  5 Jones 13      49
##  6 Jones 14      49
##  7 Jones 15      49
##  8 Jones 2       49
##  9 Jones 3       49
## 10 Jones 4       49
## # ... with 35 more rows
```
…
---

```r
reads_tidy
```

```
## # A tibble: 315 x 7
##    student_id test_year            test_type test_site unit  percent score
##    <chr>      <chr>                <chr>     <chr>     <chr> <chr>   <chr>
##  1 Jones 1    06/01/2016 12:00:00… YEAR END  JONES     1     16%     4    
##  2 Jones 1    06/01/2016 12:00:00… YEAR END  JONES     2     16%     4    
##  3 Jones 1    06/01/2016 12:00:00… YEAR END  JONES     3     20%     5    
##  4 Jones 1    06/01/2016 12:00:00… YEAR END  JONES     4     33%     10   
##  5 Jones 1    06/01/2016 12:00:00… YEAR END  JONES     56    30%     9    
##  6 Jones 1    06/01/2016 12:00:00… YEAR END  JONES     7     63%     22   
##  7 Jones 1    06/01/2016 12:00:00… YEAR END  JONES     8     53%     16   
##  8 Jones 10   06/01/2016 12:00:00… YEAR END  JONES     1     12%     3    
##  9 Jones 10   06/01/2016 12:00:00… YEAR END  JONES     2     12%     3    
## 10 Jones 10   06/01/2016 12:00:00… YEAR END  JONES     3     20%     5    
## # ... with 305 more rows
```
…
---
# My method
* Load the data

```r
insurance <- import(here("data", "insurance_coverage.csv"), 
                         skip =  3, 
                         setclass = "tbl_df") %>% 
  janitor::clean_names()
insurance
```

```
## # A tibble: 36 x 11
##    in_oregon_csvage_bucket insurance_name  insurance   year geo_name geo  
##    <chr>                   <chr>           <chr>      <int> <chr>    <chr>
##  1 insurance_18to24        healthcare cov… has_insur…  2014 Oregon   0400…
##  2 insurance_18to24        healthcare cov… has_insur…  2014 Oregon   0400…
##  3 insurance_25to34        healthcare cov… has_insur…  2014 Oregon   0400…
##  4 insurance_25to34        healthcare cov… has_insur…  2014 Oregon   0400…
##  5 insurance_35to44        healthcare cov… has_insur…  2014 Oregon   0400…
##  6 insurance_35to44        healthcare cov… has_insur…  2014 Oregon   0400…
##  7 insurance_45to54        healthcare cov… has_insur…  2014 Oregon   0400…
##  8 insurance_45to54        healthcare cov… has_insur…  2014 Oregon   0400…
##  9 insurance_55to64        healthcare cov… has_insur…  2014 Oregon   0400…
## 10 insurance_55to64        healthcare cov… has_insur…  2014 Oregon   0400…
## # ... with 26 more rows, and 5 more variables: sex_name <chr>, sex <int>,
## #   hc_pop <int>, hc_pop_moe <dbl>, hc_pop_rca <dbl>
```
…
