Introduction to data visualization
…
---
# Candy data & cleanup

```r
candy <- candy_rankings %>% 
  gather(type, dummy, chocolate:pluribus) %>% 
  filter(dummy) %>% 
  select(-dummy)

candy
```

```
## # A tibble: 197 x 5
##    competitorname           sugarpercent pricepercent winpercent type     
##    <chr>                           <dbl>        <dbl>      <dbl> <chr>    
##  1 100 Grand                       0.732       0.860        67.0 chocolate
##  2 3 Musketeers                    0.604       0.511        67.6 chocolate
##  3 Almond Joy                      0.465       0.767        50.3 chocolate
##  4 Baby Ruth                       0.604       0.767        56.9 chocolate
##  5 Charleston Chew                 0.604       0.511        39.0 chocolate
##  6 Hershey's Kisses                0.127       0.0930       55.4 chocolate
##  7 Hershey's Krackel               0.430       0.918        62.3 chocolate
##  8 Hershey's Milk Chocolate        0.430       0.918        56.5 chocolate
##  9 Hershey's Special Dark          0.430       0.918        59.2 chocolate
## 10 Junior Mints                    0.197       0.511        57.2 chocolate
## # ... with 187 more rows
```
…
