Seeing the big picture
…
# A few examples of amazing packages

---
### First: the data

https://cepa.stanford.edu/seda/overview

.gray[.small[(loaded from code not displayed)]]

```r
seda
```

```
## # A tibble: 53,807 x 6
##    stateabb leaname          grade  time mean_link_ela mean_link_math
##    <chr>    <chr>            <dbl> <dbl>         <dbl>          <dbl>
##  1 AL       ALBERTVILLE CITY     3     0          204.           216.
##  2 AL       ALBERTVILLE CITY     4     1          219.           235.
##  3 AL       ALBERTVILLE CITY     5     2          221.           233.
##  4 AL       ALBERTVILLE CITY     6     3          235.           256.
##  5 AL       ALBERTVILLE CITY     7     4          244.           268.
##  6 AL       MARSHALL COUNTY      3     0          206.           224.
##  7 AL       MARSHALL COUNTY      4     1          218.           236.
##  8 AL       MARSHALL COUNTY      5     2          227.           250.
##  9 AL       MARSHALL COUNTY      6     3          237.           256.
## 10 AL       MARSHALL COUNTY      7     4          254.           270.
## # ... with 53,797 more rows
```
…
---
## How do we access variables?
* Generally, in this course, *tidyverse* tools
* Sometimes `$`
* Let's load the tidyverse, and then we'll access some variables from the 
  datasets within some of those packages.
* Look at the *gss_cat* data frame.

```r
library(tidyverse)
gss_cat
```

```
## # A tibble: 21,483 x 9
##     year marital         age race  rincome  partyid  relig  denom  tvhours
##    <int> <fct>         <int> <fct> <fct>    <fct>    <fct>  <fct>    <int>
##  1  2000 Never married    26 White $8000 t… Ind,nea… Prote… South…      12
##  2  2000 Divorced         48 White $8000 t… Not str… Prote… Bapti…      NA
##  3  2000 Widowed          67 White Not app… Indepen… Prote… No de…       2
##  4  2000 Never married    39 White Not app… Ind,nea… Ortho… Not a…       4
##  5  2000 Divorced         25 White Not app… Not str… None   Not a…       1
##  6  2000 Married          25 White $20000 … Strong … Prote… South…      NA
##  7  2000 Never married    36 White $25000 … Not str… Chris… Not a…       3
##  8  2000 Divorced         44 White $7000 t… Ind,nea… Prote… Luthe…      NA
##  9  2000 Married          44 White $25000 … Not str… Prote… Other        0
## 10  2000 Married          47 White $25000 … Strong … Prote… South…       3
## # ... with 21,473 more rows
```
…
---
# The pipe operator
We'll talk about this a lot more, but
* The `%>%` operator (super + shift + m) inserts the input from the left as the 
  first argument in the next function

```r
gss_cat %>% 
  count(denom)
```

```
## # A tibble: 30 x 2
##    denom                    n
##    <fct>                <int>
##  1 No answer              117
##  2 Don't know              52
##  3 No denomination       1683
##  4 Other                 2534
##  5 Episcopal              397
##  6 Presbyterian-dk wh     244
##  7 Presbyterian, merged    67
##  8 Other presbyterian      47
##  9 United pres ch in us   110
## 10 Presbyterian c in us   104
## # ... with 20 more rows
```

The above is equivalent to

```r
count(gss_cat, denom)
```

```
## # A tibble: 30 x 2
##    denom                    n
##    <fct>                <int>
##  1 No answer              117
##  2 Don't know              52
##  3 No denomination       1683
##  4 Other                 2534
##  5 Episcopal              397
##  6 Presbyterian-dk wh     244
##  7 Presbyterian, merged    67
##  8 Other presbyterian      47
##  9 United pres ch in us   110
## 10 Presbyterian c in us   104
## # ... with 20 more rows
```
…
