Continuing our introduction to tidy data
…
```r
library(tidyverse)
library(rio)
library(here)
d <- import(here("data", "exam1.csv"),
            setclass = "tbl_df")
```

---
# Quick trial
* Try to tidy these data so they look like the below

```
## # A tibble: 630 x 4
##    stu_name gender  item correct
##    <chr>    <chr>  <dbl>   <int>
##  1 Adam     M          1       1
##  2 Adam     M          2       1
##  3 Adam     M          3       1
##  4 Adam     M          4       1
##  5 Adam     M          5       1
##  6 Adam     M          6       1
##  7 Adam     M          7       1
##  8 Adam     M          8       0
##  9 Adam     M          9       0
## 10 Adam     M         10       0
## # ... with 620 more rows
```
…
* Third argument to `...` says we want to omit the first and second columns in when gathering.

<br>

What do you get? Are these data tidy now?

---
* The code on the previous slide basically puts our data in a tidy format. 
* To "clean up" some, could transform the `item` variable to numeric

```
## # A tibble: 630 x 4
##    stu_name gender item   score
##    <chr>    <chr>  <chr>  <int>
##  1 Adam     M      item_1     1
##  2 Anne     F      item_1     1
##  3 Audrey   F      item_1     1
##  4 Barbara  F      item_1     1
##  5 Bert     M      item_1     1
##  6 Betty    F      item_1     1
##  7 Blaise   M      item_1     1
##  8 Brenda   F      item_1     1
##  9 Britton  F      item_1     1
## 10 Carol    F      item_1     1
## # ... with 620 more rows
```
…
```r
td %>% 
  group_by(item, gender) %>% 
  summarize(prop = mean(score))
```

```
## # A tibble: 36 x 3
## # Groups:   item [?]
##    item  gender       prop
##    <chr> <chr>       <dbl>
##  1 1     F      1         
##  2 1     M      1         
##  3 10    F      0.7222222 
##  4 10    M      0.6470588 
##  5 11    F      0.05555556
##  6 11    M      0.6470588 
##  7 12    F      0         
##  8 12    M      0.3529412 
##  9 13    F      0.2222222 
## 10 13    M      0.1764706 
## # ... with 26 more rows
```
…
---
# Calculate percent correct

```r
td %>% 
  group_by(stu_name) %>% 
  summarize(total_poss = max(n()),
            raw_score = sum(score),
            pct_correct = raw_score / total_poss)
```

```
## # A tibble: 35 x 4
##    stu_name total_poss raw_score pct_correct
##    <chr>         <int>     <int>       <dbl>
##  1 Adam             18         7   0.3888889
##  2 Anne             18        10   0.5555556
##  3 Audrey           18        11   0.6111111
##  4 Barbara          18         6   0.3333333
##  5 Bert             18         8   0.4444444
##  6 Betty            18         9   0.5      
##  7 Blaise           18        13   0.7222222
##  8 Brenda           18        10   0.5555556
##  9 Britton          18         8   0.4444444
## 10 Carol            18         6   0.3333333
## # ... with 25 more rows
```
…
---
## Variable names include data

```r
ld %>% 
* gather(var, score, -1)
```

```
## # A tibble: 40 x 3
##      sid var         score
##    <int> <chr>       <dbl>
##  1     1 wave_1_math    95
##  2     2 wave_1_math   101
##  3     3 wave_1_math    99
##  4     4 wave_1_math   109
##  5     5 wave_1_math   101
##  6     1 wave_2_math    98
##  7     2 wave_2_math   103
##  8     3 wave_2_math   103
##  9     4 wave_2_math   111
## 10     5 wave_2_math   104
## # ... with 30 more rows
```

---

```r
ld %>% 
  gather(var, score, -1) %>% 
* separate(var,
*          c("dis", "wave", "subject"),
*          sep = "_",
*          convert = TRUE)
```

```
## # A tibble: 40 x 5
##      sid dis    wave subject score
##    <int> <chr> <int> <chr>   <dbl>
##  1     1 wave      1 math       95
##  2     2 wave      1 math      101
##  3     3 wave      1 math       99
##  4     4 wave      1 math      109
##  5     5 wave      1 math      101
##  6     1 wave      2 math       98
##  7     2 wave      2 math      103
##  8     3 wave      2 math      103
##  9     4 wave      2 math      111
## 10     5 wave      2 math      104
## # ... with 30 more rows
```
…
```r
tidy_ld <- ld %>% 
  gather(var, score, -1) %>% 
  separate(var, 
           c("dis", "wave", "subject"), 
           sep = "_", 
           convert = TRUE) %>%
  select(-dis) 

tidy_ld
```

```
## # A tibble: 40 x 4
##      sid  wave subject score
##    <int> <int> <chr>   <dbl>
##  1     1     1 math       95
##  2     2     1 math      101
##  3     3     1 math       99
##  4     4     1 math      109
##  5     5     1 math      101
##  6     1     2 math       98
##  7     2     2 math      103
##  8     3     2 math      103
##  9     4     2 math      111
## 10     5     2 math      104
## # ... with 30 more rows
```
…
---
## Spread *td*

Reminder what the tidy data look like

```
## # A tibble: 630 x 4
##    stu_name gender item  score
##    <chr>    <chr>  <chr> <int>
##  1 Adam     M      1         1
##  2 Anne     F      1         1
##  3 Audrey   F      1         1
##  4 Barbara  F      1         1
##  5 Bert     M      1         1
##  6 Betty    F      1         1
##  7 Blaise   M      1         1
##  8 Brenda   F      1         1
##  9 Britton  F      1         1
## 10 Carol    F      1         1
## # ... with 620 more rows
```

---

```r
s_d <- td %>% 
  spread(item, score)

s_d
```

```
## # A tibble: 35 x 20
##    stu_name gender   `1`  `10`  `11`  `12`  `13`  `14`  `15`  `16`  `17`
##    <chr>    <chr>  <int> <int> <int> <int> <int> <int> <int> <int> <int>
##  1 Adam     M          1     0     0     0     0     0     0     0     0
##  2 Anne     F          1     1     0     0     0     0     0     0     0
##  3 Audrey   F          1     1     0     0     1     0     0     0     0
##  4 Barbara  F          1     1     0     0     0     0     0     0     0
##  5 Bert     M          1     1     0     0     0     0     0     0     0
##  6 Betty    F          1     0     0     0     0     0     0     0     0
##  7 Blaise   M          1     1     1     1     1     0     0     0     0
##  8 Brenda   F          1     1     0     0     0     0     0     0     0
##  9 Britton  F          1     0     0     0     0     0     0     0     0
## 10 Carol    F          1     0     0     0     0     0     0     0     0
## # ... with 25 more rows, and 9 more variables: `18` <int>, `2` <int>,
## #   `3` <int>, `4` <int>, `5` <int>, `6` <int>, `7` <int>, `8` <int>,
## #   `9` <int>
```
…
---
## First `gather` all vars

```r
sim2 %>% 
    gather(var, val, -1)
```

```
## # A tibble: 1,800 x 3
##      SID var     val  
##    <int> <chr>   <chr>
##  1     1 male_g6 0    
##  2     2 male_g6 1    
##  3     3 male_g6 1    
##  4     4 male_g6 1    
##  5     5 male_g6 0    
##  6     6 male_g6 1    
##  7     7 male_g6 1    
##  8     8 male_g6 0    
##  9     9 male_g6 0    
## 10    10 male_g6 1    
## # ... with 1,790 more rows
```

---
## Next, `separate`

```r
sim2 %>% 
    gather(var, val, -1) %>% 
    separate(var, c("var", "grade"), sep = "_")
```

```
## # A tibble: 1,800 x 4
##      SID var   grade val  
##    <int> <chr> <chr> <chr>
##  1     1 male  g6    0    
##  2     2 male  g6    1    
##  3     3 male  g6    1    
##  4     4 male  g6    1    
##  5     5 male  g6    0    
##  6     6 male  g6    1    
##  7     7 male  g6    1    
##  8     8 male  g6    0    
##  9     9 male  g6    0    
## 10    10 male  g6    1    
## # ... with 1,790 more rows
```

---
## Parse Numeric

```r
sim2 %>% 
    gather(var, val, -1) %>% 
    separate(var, c("var", "grade"), sep = "_") %>% 
    mutate(grade = parse_number(grade))
```

```
## # A tibble: 1,800 x 4
##      SID var   grade val  
##    <int> <chr> <dbl> <chr>
##  1     1 male      6 0    
##  2     2 male      6 1    
##  3     3 male      6 1    
##  4     4 male      6 1    
##  5     5 male      6 0    
##  6     6 male      6 1    
##  7     7 male      6 1    
##  8     8 male      6 0    
##  9     9 male      6 0    
## 10    10 male      6 1    
## # ... with 1,790 more rows
```

---
## `spread` for final produce

```r
sim2 %>% 
    gather(var, val, -1) %>% 
    separate(var, c("var", "grade"), sep = "_") %>% 
    mutate(grade = parse_number(grade)) %>% 
    spread(var, val)
```

```
## # A tibble: 300 x 8
##      SID grade disability ell   male  pullouts score            sped 
##    <int> <dbl> <chr>      <chr> <chr> <chr>    <chr>            <chr>
##  1     1     6 none       0     0     0        208.434415681363 0    
##  2     1     7 none       0     0     0        212.52698033647  0    
##  3     1     8 none       0     0     0        219.999423463527 0    
##  4     2     6 none       0     1     0        193.235211343351 0    
##  5     2     7 none       0     1     0        200.918088606708 0    
##  6     2     8 none       0     1     0        205.561434813331 0    
##  7     3     6 asd        1     1     0        196.085670969229 0    
##  8     3     7 asd        1     1     0        203.05758537086  0    
##  9     3     8 asd        1     1     0        210.530524529609 0    
## 10     4     6 none       0     1     0        204.049406440706 0    
## # ... with 290 more rows
```
…
