Finishing up with tidy data
…
```r
votes <- votes %>% 
  rename(state = V1)
```

---
# Step 2: `gather()`

```r
votes %>% 
    gather(year, approval_rating, -1)
```

```
## # A tibble: 1,550 x 3
##    state       year  approval_rating
##    <chr>       <chr>           <dbl>
##  1 Alabama     X1856           NA   
##  2 Alaska      X1856           NA   
##  3 Arizona     X1856           NA   
##  4 Arkansas    X1856           NA   
##  5 California  X1856           18.77
##  6 Colorado    X1856           NA   
##  7 Connecticut X1856           53.18
##  8 Delaware    X1856            2.11
##  9 Florida     X1856           NA   
## 10 Georgia     X1856           NA   
## # ... with 1,540 more rows
```

---
# Clean up some

```r
votes_tidy <- votes %>% 
    gather(year, approval_rating, -1) %>% 
    mutate(year = parse_number(year))
votes_tidy
```

```
## # A tibble: 1,550 x 3
##    state        year approval_rating
##    <chr>       <dbl>           <dbl>
##  1 Alabama      1856           NA   
##  2 Alaska       1856           NA   
##  3 Arizona      1856           NA   
##  4 Arkansas     1856           NA   
##  5 California   1856           18.77
##  6 Colorado     1856           NA   
##  7 Connecticut  1856           53.18
##  8 Delaware     1856            2.11
##  9 Florida      1856           NA   
## 10 Georgia      1856           NA   
## # ... with 1,540 more rows
```
…
